Statistical analysis and presentation using R - 7 OLS Assumptions
…
Our example will use the multiple_ln model from earlier wherein we predicted a country’s democracy score based on its level of inequality, prior regime status, and a logged version of GDP.

#Run the command and store results
demdata_multln <- augment(multiple_ln)

demdata_multln <-augment(multiple_ln)

The augment function is used on the model specified in brackets, and the results are saved to a new data object (demdata_multln).

Here is what the contents of the data object look like:

demdata_multln

# A tibble: 53 × 11
   .rownames v2x_polyarchy gini_2019 TYPEDEMO1984 LNGDP2006 .fitted   .resid
   <chr>             <dbl>     <dbl> <fct>            <dbl>   <dbl>    <dbl>
 1 3                 0.908      26.5 Democracies      10.3    0.857  0.0514 
 2 4                 0.894      30.1 Democracies      10.5    0.881  0.0129 
 3 10                0.485      37.5 Autocracies       7.38   0.480  0.00510
 4 13                0.652      48   Democracies       7.75   0.559  0.0925 
 5 14                0.632      29.3 Autocracies       8.62   0.625  0.00694
 6 15                0.678      47.6 Democracies       8.31   0.632  0.0464 
 7 16                0.807      38.7 Democracies      10.5    0.906 -0.0995 
 8 17                0.882      32.1 Democracies       9.32   0.733  0.149  
 9 18                0.577      37.3 Democracies       7.68   0.530  0.0466 
10 20                0.327      40.7 Democracies       6.99   0.447 -0.120  
# ℹ 43 more rows
# ℹ 4 more variables: .hat <dbl>, .sigma <dbl>, .cooksd <dbl>, .std.resid <dbl>
…
