Statistical analysis and presentation using R - 1 Investigating Relationships between Continuous Variables
…
You do not always need as_tibble() as shown here. We do this here because it is easier to show larger datasets with them. See Statistics I, 2.1.

Warning

Make sure to create a project folder for the course in which you save all of your data files, assignments, etc. as this will make working with R easier. The process for doing so is covered in Statistics I, 1.5. Also, remember to use syntax to import data using the import() function from the rio package. See Section A.1.2.

1.1 Recall: Peeking Inside Data Objects

We have loaded a data file…but what’s inside it? Datasets often come with codebooks that provide information about the variables in the dataset. We can also look into our data object in R to learn more about its contents as well. We can do this in a few ways.

For instance, we can enter the name of the object in the Console:

demdata

# A tibble: 179 × 41
   country_name  year v2x_polyarchy v2x_libdem v2x_egaldem v2cacamps v2caviol
   <chr>        <dbl>         <dbl>      <dbl>       <dbl>     <dbl>    <dbl>
 1 Mexico        2020         0.647      0.412       0.369     1.53     0.023
 2 Suriname      2020         0.761      0.627       0.56      0.12    -0.813
 3 Sweden        2020         0.908      0.879       0.83     -2.08    -2.37 
 4 Switzerland   2020         0.894      0.851       0.832    -1.70    -2.66 
 5 Ghana         2020         0.72       0.614       0.534    -0.441   -0.008
 6 South Africa  2020         0.703      0.578       0.477     0.092    0.395
 7 Japan         2020         0.832      0.743       0.75     -1.54    -1.95 
 8 Myanmar       2020         0.436      0.271       0.253     0.886    1.28 
 9 Russia        2020         0.262      0.103       0.203     0.558    0.195
10 Albania       2020         0.485      0.409       0.358    -0.501   -0.119
# ℹ 169 more rows
# ℹ 34 more variables: e_peaveduc <dbl>, cpi <dbl>, e_regiongeo <dbl>,
#   e_regionpol_6C <dbl>, v2elcomvot <dbl>, compulsory_voting <dbl>,
#   bicameral <dbl>, dem_diff <dbl>, dem_increase <dbl>, dem_decrease <dbl>,
#   TypeSoc2005 <dbl>, TypeEcon2006 <dbl>, HDI2005 <dbl>, GDP2006 <dbl>,
#   TYPEDEMO1984 <dbl>, TYPEDEMO2007 <dbl>, Fragile2006 <dbl>,
#   Typeregime2006 <dbl>, TYPEGOV2007 <dbl>, CPI8085 <dbl>, …
…
