Statistical analysis and presentation using R - 5 Predicted & Residual Values
…
We are assigning the output of our command to a new object called model_binary_predictions. You would name this whatever you wish in your examples.

predictions(model_binary,

The name of the command is predictions. We place within the parentheses the name of the data object where we have stored our model results. You should change this name to whatever you have named the model you want to make predictions from.

newdata = demdata)

Here we tell the command where the data originally comes from. This has a specific purpose: it tells the command that the output it creates should include both the predicted values for each observation in the original dataset and all of the other variables in the original dataset for these observations. This can be useful for investigating the characteristics of observations that have particularly sizable residual values. Omitting newdata = demdata, on the other hand, would produce an object that contains predicted values for each observation used in fitting the model as well as their observed values on the variables using in the model but not other variables from the original dataset. You would change demdata to the name of the data object used when fitting your regression model.

Here is what the output looks like:

model_binary_predictions

# A tibble: 179 × 49
   rowid estimate std.error statistic    p.value s.value conf.low conf.high
   <int>    <dbl>     <dbl>     <dbl>      <dbl>   <dbl>    <dbl>     <dbl>
 1     1    0.690    0.0287      24.1  3.16e-128    424.    0.634     0.746
 2     2    0.418    0.0233      17.9  1.16e- 71    236.    0.372     0.463
 3     3    0.690    0.0287      24.1  3.16e-128    424.    0.634     0.746
 4     4    0.690    0.0287      24.1  3.16e-128    424.    0.634     0.746
 5     5    0.418    0.0233      17.9  1.16e- 71    236.    0.372     0.463
 6     6    0.418    0.0233      17.9  1.16e- 71    236.    0.372     0.463
 7     7    0.690    0.0287      24.1  3.16e-128    424.    0.634     0.746
 8     8    0.418    0.0233      17.9  1.16e- 71    236.    0.372     0.463
 9     9   NA       NA           NA   NA             NA    NA        NA    
10    10    0.418    0.0233      17.9  1.16e- 71    236.    0.372     0.463
# ℹ 169 more rows
# ℹ 41 more variables: country_name <chr>, year <dbl>, v2x_polyarchy <dbl>,
#   v2x_libdem <dbl>, v2x_egaldem <dbl>, v2cacamps <dbl>, v2caviol <dbl>,
#   e_peaveduc <dbl>, cpi <dbl>, e_regiongeo <dbl>, e_regionpol_6C <dbl>,
#   v2elcomvot <dbl>, compulsory_voting <dbl>, bicameral <dbl>, dem_diff <dbl>,
#   dem_increase <dbl>, dem_decrease <dbl>, TypeSoc2005 <dbl>,
#   TypeEcon2006 <dbl>, HDI2005 <dbl>, GDP2006 <dbl>, TYPEDEMO1984 <fct>, …
…
std.error, statistic, p.value, conf.low, conf.high: These report the standard error, test statistic, p-value, and the lower and upper bounds of the 95% confidence interval for the estimate. They tell us about the uncertainty around the prediction. The s.value column provides another way of thinking about uncertainty, but one we won’t cover; it is non-examinable.2

The ensuing columns in the data frame are the variables from the original dataset and are noted at the bottom of the output (“41 more variables: country_name <chr>, …”).

We can use this saved data object to calculate the residual value for each observation: the difference between the actual value on the DV and what our model predicts we should observe for the observation by creating a new variable where we subtract “estimate” from our DV.

model_binary_predictions <- model_binary_predictions |> 
  mutate(residual_value = v2x_polyarchy - estimate) #residual = actual - predicted

We could then use this newly created variable to investigate the results of our model and consider, for instance, which observations have particularly large residual values. This can be useful when checking the assumptions of our model, which we will learn how to do in Chapter 7 .3

model_binary_predictions |> 
  select(country_name, v2x_polyarchy, estimate, residual_value) 

# A tibble: 179 × 4
   country_name v2x_polyarchy estimate residual_value
   <chr>                <dbl>    <dbl>          <dbl>
 1 Mexico               0.647    0.690        -0.0432
 2 Suriname             0.761    0.418         0.343 
 3 Sweden               0.908    0.690         0.218 
 4 Switzerland          0.894    0.690         0.204 
 5 Ghana                0.72     0.418         0.302 
 6 South Africa         0.703    0.418         0.285 
 7 Japan                0.832    0.690         0.142 
 8 Myanmar              0.436    0.418         0.0184
 9 Russia               0.262   NA            NA     
10 Albania              0.485    0.418         0.0674
# ℹ 169 more rows
…
