Statistical analysis and presentation using R - 13 Logistic Regression Assumptions
…
vif(Vote_model4)

    gndr     agea  trstplt  lrscale 
1.013505 1.018080 1.019284 1.013647 

The statistics above indicate that we do not have a problem with excessive multicollinearity.

13.2 Linearity of the logit

Logistic regression models make the assumption that changes in the log of the odds (the logit) that Y = 1 are linear. We can examine this assumption using the augment() command from the broom package. This command will create a data object with the variables in our model as well as some important assumption-related statistics. Here is a preview:

augment(Vote_model4)

# A tibble: 1,425 × 11
   vote  gndr    agea trstplt lrscale .fitted .resid    .hat .sigma   .cooksd
   <fct> <fct>  <dbl>   <dbl>   <dbl>   <dbl>  <dbl>   <dbl>  <dbl>     <dbl>
 1 Yes   Female    32       6       5    1.62  0.601 0.00238  0.894 0.0000947
 2 No    Male      57       7       5    2.32 -2.20  0.00175  0.893 0.00356  
 3 Yes   Female    45       8       5    2.25  0.448 0.00220  0.894 0.0000467
 4 Yes   Female    34       7       5    1.85  0.540 0.00237  0.894 0.0000749
 5 Yes   Male      67       6       6    2.33  0.430 0.00188  0.894 0.0000365
 6 No    Female    85       5       4    2.37 -2.22  0.00330  0.893 0.00710  
 7 Yes   Female    40       7       5    1.96  0.513 0.00199  0.894 0.0000561
 8 Yes   Male      71       8       7    2.83  0.339 0.00245  0.894 0.0000292
 9 Yes   Female    84       5       5    2.38  0.421 0.00310  0.894 0.0000577
10 Yes   Male      24       7       5    1.71  0.576 0.00360  0.894 0.000131 
# ℹ 1,415 more rows
# ℹ 1 more variable: .std.resid <dbl>
…
