Statistical analysis and presentation using R - 11 Predicted Probabilities
…
Number of Fisher Scoring iterations: 4

11.1 Predictions for Individual Observations

Our logistic model makes a prediction for each observation in the model: what is the probability that the dependent variable = 1 (here: that people voted) based on the parameters of the model (the coefficients) and the observation’s combination of values on the independent variables. We can use the predictions() function to obtain these estimates.

#Store the results as a new object
Vote_pred <- predictions(Vote_model_mp,
                         conf_level = 0.95, 
                         newdata = ESS9NL)

#We can use tibble() to get a nice tabular overview
tibble(Vote_pred)

# A tibble: 1,673 × 578
   rowid estimate   p.value s.value conf.low conf.high name    essround edition
   <int>    <dbl>     <dbl>   <dbl>    <dbl>     <dbl> <chr>      <dbl> <chr>  
 1     1    0.835  6.13e-35   114.     0.796     0.867 ESS9e03        9 3      
 2     2    0.910  1.71e-56   185.     0.884     0.931 ESS9e03        9 3      
 3     3    0.904  4.26e-45   147.     0.874     0.928 ESS9e03        9 3      
 4     4   NA     NA           NA     NA        NA     ESS9e03        9 3      
 5     5    0.864  9.71e-39   126.     0.828     0.894 ESS9e03        9 3      
 6     6    0.912  7.81e-53   173.     0.884     0.933 ESS9e03        9 3      
 7     7    0.800  1.32e-12    39.5    0.731     0.854 ESS9e03        9 3      
 8     8    0.914  9.43e-31    99.7    0.877     0.941 ESS9e03        9 3      
 9     9    0.877  1.88e-47   155.     0.845     0.903 ESS9e03        9 3      
10    10    0.944  2.64e-39   128.     0.917     0.963 ESS9e03        9 3      
# ℹ 1,663 more rows
# ℹ 569 more variables: proddate <chr>, idno <dbl>, cntry <chr>, nwspol <dbl>,
#   netusoft <dbl>, netustm <dbl>, ppltrst <dbl>, pplfair <dbl>, pplhlp <dbl>,
#   polintr <dbl>, psppsgva <dbl>, actrolga <dbl>, psppipla <dbl>,
#   cptppola <dbl>, trstprl <dbl>, trstlgl <dbl>, trstplc <dbl>, trstplt <dbl>,
#   trstprt <dbl>, trstep <dbl>, trstun <dbl>, vote <fct>, prtvtcat <dbl>,
#   prtvtdbe <dbl>, prtvtdbg <dbl>, prtvtgch <dbl>, prtvtbcy <dbl>, …
…
